{
"label": "Techniques Mahõ",
"mapping": {
    "description": "system.description",
    "book_reference": "system.book_reference"
},
"entries": [{
    "id": "Incite Haunting",
	"name": "Incite Haunting",
	"description": "",
	"book_reference": "Core Rulebook p.224"
},{
    "id": "Grip of Anguish",
	"name": "Grip of Anguish",
	"description": "",
	"book_reference": "Core Rulebook p.224"
},{
    "id": "Unholy Fervor",
	"name": "Unholy Fervor",
	"description": "",
	"book_reference": "Core Rulebook p.225"
},{
    "id": "Mark of Desecration",
	"name": "Mark of Desecration",
	"description": "",
	"book_reference": "Core Rulebook p.225"
},{
    "id": "Sinful Whispers",
	"name": "Sinful Whispers",
	"description": "",
	"book_reference": "Core Rulebook p.225"
},{
    "id": "Accursed Summoning",
	"name": "Accursed Summoning",
	"description": "",
	"book_reference": "Shadowlands p.118"
},{
    "id": "Bind the Undead",
	"name": "Bind the Undead",
	"description": "",
	"book_reference": "Shadowlands p.118"
},{
    "id": "Commune with Evil",
	"name": "Commune with Evil",
	"description": "",
	"book_reference": "Shadowlands p.118"
},{
    "id": "Dark Reflection",
	"name": "Dark Reflection",
	"description": "",
	"book_reference": "Shadowlands p.119"
},{
    "id": "Entreat the Shadow Steed",
	"name": "Entreat the Shadow Steed",
	"description": "",
	"book_reference": "Shadowlands p.119"
},{
    "id": "Fiend's Retreat",
	"name": "Fiend's Retreat",
	"description": "",
	"book_reference": "Shadowlands p.119"
},{
    "id": "Shape the Flesh",
	"name": "Shape the Flesh",
	"description": "",
	"book_reference": "Shadowlands p.120"
},{
    "id": "Spiritual Shackles",
	"name": "Spiritual Shackles",
	"description": "",
	"book_reference": "Shadowlands p.120"
},{
    "id": "Spread Corruption",
	"name": "Spread Corruption",
	"description": "",
	"book_reference": "Shadowlands p.120"
},{
    "id": "Sword of Blood",
	"name": "Sword of Blood",
	"description": "",
	"book_reference": "Shadowlands p.121"
},{
    "id": "Twisted Summons",
	"name": "Twisted Summons",
	"description": "",
	"book_reference": "Shadowlands p.121"
}]
}
