{
"label": "Anxieties",
"mapping": {
    "types": "system.types",
    "description": "system.description",
    "book_reference": "system.book_reference"
},
"entries": [{
    "id": "Addiction",
	"name": "Addiction",
	"types": "Mental, Physical",
	"description": "",
	"book_reference": "Core Rulebook p.131"
},{
    "id": "Battle Trauma",
	"name": "Battle Trauma",
	"types": "Mental, Physical",
	"description": "",
	"book_reference": "Core Rulebook p.131"
},{
    "id": "Cynicism",
	"name": "Cynicism",
	"types": "Interpersonal, Mental",
	"description": "",
	"book_reference": "Core Rulebook p.131"
},{
    "id": "Dark Secret",
	"name": "Dark Secret",
	"types": "Interpersonal",
	"description": "",
	"book_reference": "Core Rulebook p.132"
},{
    "id": "Delusions of Grandeur",
	"name": "Delusions of Grandeur",
	"types": "Interpersonal, Mental",
	"description": "",
	"book_reference": "Core Rulebook p.132"
},{
    "id": "Fear of Death",
	"name": "Fear of Death",
	"types": "Mental, Physical",
	"description": "",
	"book_reference": "Core Rulebook p.132"
},{
    "id": "Ferocity",
	"name": "Ferocity",
	"types": "Mental, Physical",
	"description": "",
	"book_reference": "Core Rulebook p.132"
},{
    "id": "Impatience",
	"name": "Impatience",
	"types": "Mental",
	"description": "",
	"book_reference": "Core Rulebook p.133"
},{
    "id": "Intolerance",
	"name": "Intolerance",
	"types": "Interpersonal",
	"description": "",
	"book_reference": "Core Rulebook p.133"
},{
    "id": "Irrepressible Flirtation",
	"name": "Irrepressible Flirtation",
	"types": "Interpersonal",
	"description": "",
	"book_reference": "Core Rulebook p.134"
},{
    "id": "Jealousy",
	"name": "Jealousy",
	"types": "Mental, Physical",
	"description": "",
	"book_reference": "Core Rulebook p.134"
},{
    "id": "Materialism",
	"name": "Materialism",
	"types": "Mental",
	"description": "",
	"book_reference": "Core Rulebook p.134"
},{
    "id": "Meekness",
	"name": "Meekness",
	"types": "Interpersonal",
	"description": "",
	"book_reference": "Core Rulebook p.134"
},{
    "id": "Painful Honesty",
	"name": "Painful Honesty",
	"types": "Interpersonal",
	"description": "",
	"book_reference": "Core Rulebook p.135"
},{
    "id": "Paranoia",
	"name": "Paranoia",
	"types": "Mental, Physical",
	"description": "",
	"book_reference": "Core Rulebook p.135"
},{
    "id": "Perfectionism",
	"name": "Perfectionism",
	"types": "Mental, Physical",
	"description": "",
	"book_reference": "Core Rulebook p.135"
},{
    "id": "Phobia",
	"name": "Phobia",
	"types": "Mental, Physical",
	"description": "",
	"book_reference": "Core Rulebook p.136"
},{
    "id": "Softheartedness",
	"name": "Softheartedness",
	"types": "Interpersonal, Mental",
	"description": "",
	"book_reference": "Core Rulebook p.136"
},{
    "id": "Superstition",
	"name": "Superstition",
	"types": "Mental, Spiritual",
	"description": "",
	"book_reference": "Core Rulebook p.136"
},{
    "id": "Conspiracy",
	"name": "Conspiracy",
	"types": "Interpersonal, Mental",
	"description": "",
	"book_reference": "Celestial Realms p.91"
},{
    "id": "Omen of Bad Luck",
	"name": "Omen of Bad Luck",
	"types": "Interpersonal, Mental",
	"description": "",
	"book_reference": "Celestial Realms p.92"
},{
    "id": "Uncleanliness",
	"name": "Uncleanliness",
	"types": "Mental",
	"description": "",
	"book_reference": "Celestial Realms p.92"
},{
    "id": "Vanity",
	"name": "Vanity",
	"types": "Interpersonal, Mental",
	"description": "",
	"book_reference": "Celestial Realms p.92"
},{
    "id": "Isolation",
	"name": "Isolation",
	"types": "Interpersonal, Mental",
	"description": "",
	"book_reference": "Court of Stones p.103"
},{
    "id": "Web of Lies",
	"name": "Web of Lies",
	"types": "Interpersonal",
	"description": "",
	"book_reference": "Court of Stones p.103"
},{
    "id": "Accustomed to Luxury",
	"name": "Accustomed to Luxury",
	"types": "Mental",
	"description": "",
	"book_reference": "Emerald Empire p.246"
},{
    "id": "Claustrophobia",
	"name": "Claustrophobia",
	"types": "Mental",
	"description": "",
	"book_reference": "Emerald Empire p.247"
},{
    "id": "False Identity",
	"name": "False Identity",
	"types": "Interpersonal",
	"description": "",
	"book_reference": "Emerald Empire p.247"
},{
    "id": "Loathing for Peasants",
	"name": "Loathing for Peasants",
	"types": "Interpersonal, Mental",
	"description": "",
	"book_reference": "Emerald Empire p.247"
},{
    "id": "Loneliness",
	"name": "Loneliness",
	"types": "Interpersonal, Mental",
	"description": "",
	"book_reference": "Emerald Empire p.248"
},{
    "id": "Eyes of Many",
	"name": "Eyes of Many",
	"types": "Mental",
	"description": "",
	"book_reference": "Path of Waves p.73"
},{
    "id": "Coming Storm",
	"name": "Coming Storm",
	"types": "Mental",
	"description": "",
	"book_reference": "Path of Waves p.73"
},{
    "id": "Fear of Stagnation",
	"name": "Fear of Stagnation",
	"types": "Mental",
	"description": "",
	"book_reference": "Path of Waves p.74"
},{
    "id": "Failure",
	"name": "Failure",
	"types": "Mental",
	"description": "",
	"book_reference": "Path of Waves p.74"
},{
    "id": "Fallen Ancestor",
	"name": "Fallen Ancestor",
	"types": "Interpersonal, Spiritual",
	"description": "",
	"book_reference": "Shadowlands p.98"
},{
    "id": "Obtuse",
	"name": "Obtuse",
	"types": "Mental",
	"description": "",
	"book_reference": "Shadowlands p.98"
},{
    "id": "Reformed Maho-Tsukai",
	"name": "Reformed Maho-Tsukai",
	"types": "Interpersonal",
	"description": "",
	"book_reference": "Shadowlands p.99"
},{
    "id": "Belligerent",
	"name": "Belligerent",
	"types": "Interpersonal",
	"description": "",
	"book_reference": "Fields of Victory p.85"
},{
    "id": "Braggart",
	"name": "Braggart",
	"types": "Interpersonal",
	"description": "",
	"book_reference": "Fields of Victory p.85"
},{
    "id": "Fear of [Common Creature]",
	"name": "Fear of [Common Creature]",
	"types": "Mental",
	"description": "",
	"book_reference": "Writ of the Wild p.105"
},{
    "id": "Fear of Mediocrity",
	"name": "Fear of Mediocrity",
	"types": "Interpersonal, Mental",
	"description": "",
	"book_reference": "Writ of the Wild p.106"
},{
    "id": "Fear of Poison",
	"name": "Fear of Poison",
	"types": "Mental",
	"description": "",
	"book_reference": "Writ of the Wild p.106"
}]
}
